%YAML 1.1
%TAG !u! tag:unity3d.com,2011:
--- !u!114 &11400000
MonoBehaviour:
  m_ObjectHideFlags: 0
  m_PrefabParentObject: {fileID: 0}
  m_PrefabInternal: {fileID: 0}
  m_GameObject: {fileID: 0}
  m_Enabled: 1
  m_EditorHideFlags: 0
  m_Script: {fileID: 11500000, guid: e147064f258fa45e698e192f77027e8f, type: 3}
  m_Name: GameSparksSettings
  m_EditorClassIdentifier: 
  sdkVersion: 
  apiKey: 294587yFjPiL
  apiSecret: yoDAAn9coGqoJtmtBlSxcuyaDNqohm6K
  previewBuild: 1
  debugBuild: 0
